%YAML 1.1
%TAG !u! tag:unity3d.com,2011:
--- !u!21 &2100000
Material:
  serializedVersion: 6
  m_ObjectHideFlags: 0
  m_PrefabParentObject: {fileID: 0}
  m_PrefabInternal: {fileID: 0}
  m_Name: Glass0
  m_Shader: {fileID: 4800000, guid: 7f205347e1ebaf14c97b28211ae55dbe, type: 3}
  m_ShaderKeywords: _MK_BUMP_MAP _MK_LIGHTMODEL_BLINN_PHONG _MK_REFLECTIVE_DEFAULT
    _MK_RIM _MK_SPECULAR_MAP _USEREFLECTION_ON _USERIM_ON
  m_LightmapFlags: 5
  m_EnableInstancingVariants: 0
  m_DoubleSidedGI: 0
  m_CustomRenderQueue: -1
  stringTagMap: {}
  disabledShaderPasses: []
  m_SavedProperties:
    serializedVersion: 3
    m_TexEnvs:
    - _BumpMap:
        m_Texture: {fileID: 2800000, guid: e07be47df2e750046a6eeaa358f48611, type: 3}
        m_Scale: {x: 1, y: 1}
        m_Offset: {x: 0, y: 0}
    - _DetailAlbedoMap:
        m_Texture: {fileID: 0}
        m_Scale: {x: 1, y: 1}
        m_Offset: {x: 0, y: 0}
    - _DetailMask:
        m_Texture: {fileID: 0}
        m_Scale: {x: 1, y: 1}
        m_Offset: {x: 0, y: 0}
    - _DetailNormalMap:
        m_Texture: {fileID: 0}
        m_Scale: {x: 1, y: 1}
        m_Offset: {x: 0, y: 0}
    - _EmissionMap:
        m_Texture: {fileID: 0}
        m_Scale: {x: 1, y: 1}
        m_Offset: {x: 0, y: 0}
    - _MainTex:
        m_Texture: {fileID: 0}
        m_Scale: {x: 1, y: 1}
        m_Offset: {x: 0, y: 0}
    - _MetallicGlossMap:
        m_Texture: {fileID: 0}
        m_Scale: {x: 1, y: 1}
        m_Offset: {x: 0, y: 0}
    - _OcclusionMap:
        m_Texture: {fileID: 0}
        m_Scale: {x: 1, y: 1}
        m_Offset: {x: 0, y: 0}
    - _ParallaxMap:
        m_Texture: {fileID: 0}
        m_Scale: {x: 1, y: 1}
        m_Offset: {x: 0, y: 0}
    - _ReflectMap:
        m_Texture: {fileID: 0}
        m_Scale: {x: 1, y: 1}
        m_Offset: {x: 0, y: 0}
    - _SpecGlossMap:
        m_Texture: {fileID: 0}
        m_Scale: {x: 1, y: 1}
        m_Offset: {x: 0, y: 0}
    - _TranslucentMap:
        m_Texture: {fileID: 0}
        m_Scale: {x: 1, y: 1}
        m_Offset: {x: 0, y: 0}
    m_Floats:
    - _AlbedoMap: 0
    - _BumpScale: 9.24
    - _Cutoff: 0.5
    - _DetailNormalMapScale: 1
    - _DetailTint: 0.25
    - _Distortion: 0
    - _DstBlend: 0
    - _FresnelFactor: 1.4
    - _GlossMapScale: 1
    - _Glossiness: 0.5
    - _GlossyReflections: 1
    - _LightModel: 3
    - _MKEditorShowDetailBehavior: 0
    - _MKEditorShowLightBehavior: 0
    - _MKEditorShowMainBehavior: 1
    - _MKEditorShowReflectionBehavior: 1
    - _MKEditorShowRenderBehavior: 0
    - _MKEditorShowRimBehavior: 1
    - _MKEditorShowSpecularBehavior: 0
    - _MKEditorShowTranslucentBehavior: 0
    - _MainTint: 0.883
    - _Metallic: 0
    - _Mode: 0
    - _OcclusionStrength: 1
    - _Parallax: 0.02
    - _ReflectIntensity: 0.25
    - _RenderMode: 0
    - _RimIntensity: 1
    - _RimSize: 0.97
    - _ShadowIntensity: 0.1
    - _Shininess: 0.496
    - _SmoothnessTextureChannel: 0
    - _SpecularHighlights: 1
    - _SpecularIntensity: 2
    - _SrcBlend: 1
    - _TranslucentIntensity: 0.5
    - _TranslucentShininess: 0.275
    - _UVSec: 0
    - _UseFastMode: 0
    - _UseFresnel: 0
    - _UseReflection: 1
    - _UseRim: 1
    - _UseTranslucent: 0
    - _ZWrite: 1
    m_Colors:
    - _Color: {r: 0.09877813, g: 0.11637256, b: 0.46323532, a: 1}
    - _DetailColor: {r: 1, g: 1, b: 1, a: 1}
    - _EmissionColor: {r: 0.7000001, g: 0.625, b: 1, a: 1}
    - _ReflectColor: {r: 1, g: 1, b: 1, a: 0.5}
    - _RimColor: {r: 0, g: 1, b: 0.6689656, a: 1}
    - _SpecColor: {r: 0.6838235, g: 1, b: 0.9476673, a: 0.5}
    - _TranslucentColor: {r: 1, g: 1, b: 1, a: 0.5}
